<?xml version="1.0" encoding="utf-8"?>
<!-- Generator: Adobe Illustrator 22.0.0, SVG Export Plug-In . SVG Version: 6.00 Build 0)  -->
<svg version="1.1" id="Layer_1" xmlns="http://www.w3.org/2000/svg" xmlns:xlink="http://www.w3.org/1999/xlink" x="0px" y="0px"
	 viewBox="0 0 50 50" style="enable-background:new 0 0 50 50;" xml:space="preserve">
<style type="text/css">
	.st0{fill:#F06530;}
</style>
<path class="st0" d="M46.1,23.7c0,0.9,0,1.9,0,2.8C46,27,46,27.5,45.9,28c-0.2,1.4-0.5,2.7-1,4c-0.5,1.5-1.2,2.9-2.1,4.3
	c-0.5,0.8-1.1,1.7-1.8,2.4c-0.2,0.2-0.4,0.2-0.6,0c-1.2-1-2.4-1.9-3.6-2.9c-1.4-1.2-2.8-2.4-4-3.6c-1.7-1.7-3.5-3.4-5-5.3
	c-0.5-0.7-1.2-1.4-1.7-2.1c-1.6-2-3-4.2-4.3-6.4c-0.8-1.5-1.6-3.1-2.3-4.7c-0.7-1.6-1.3-3.2-1.8-4.9C17.4,8,17.2,7,17,6.1
	c-0.1-0.3,0-0.4,0.3-0.5c1.8-0.6,3.6-1.1,5.5-1.4C24.6,4,26.4,4,28.2,4.3c2.3,0.3,4.6,1.1,6.7,2.2c2.4,1.3,4.6,3,6.3,5.1
	c2.2,2.6,3.6,5.5,4.4,8.8C45.9,21.5,45.9,22.6,46.1,23.7z M31,27c0.7,0,1.1-0.5,0.8-1c-0.7-1.1-1.5-1.9-2.4-2.8
	c-0.3-0.3-0.7-0.2-1,0c-0.4,0.3-0.4,0.7-0.2,1c0.6,0.7,1.2,1.4,1.8,2.1C30.4,26.7,30.6,27.1,31,27z M36,31.8c0.4,0,0.6-0.2,0.8-0.5
	c0.2-0.3,0-0.6-0.2-0.8c-0.8-0.8-1.6-1.5-2.5-2.2c-0.4-0.3-0.8-0.3-1.1,0.1c-0.3,0.3-0.2,0.8,0.1,1.1c0.7,0.6,1.3,1.2,2,1.8
	C35.4,31.5,35.7,31.8,36,31.8z M21,10.1c0.5,0,0.8-0.5,0.7-1c-0.1-0.4-0.2-0.7-0.3-1.1c-0.2-0.7-0.4-1.4-0.6-2
	c-0.1-0.4-0.6-0.6-0.9-0.5c-0.4,0.1-0.7,0.6-0.6,0.9c0.3,1,0.6,2,0.9,3.1C20.3,9.9,20.6,10.1,21,10.1z M22.1,11.5
	c-0.6,0-1,0.6-0.7,1.2c0.4,0.9,0.9,1.9,1.4,2.8c0.2,0.5,0.6,0.6,1,0.5c0.5-0.2,0.6-0.6,0.4-1.1c-0.4-1-0.9-1.9-1.4-2.8
	C22.7,11.7,22.4,11.5,22.1,11.5z M26.9,21.6c0.6,0,1.1-0.6,0.8-1c-0.6-1-1.3-1.9-1.9-2.9c-0.2-0.3-0.7-0.3-1-0.1
	c-0.3,0.2-0.5,0.6-0.2,0.9c0.6,0.9,1.3,1.9,1.9,2.8C26.4,21.6,26.6,21.6,26.9,21.6z M42.1,35c0-0.2-0.2-0.5-0.4-0.6
	c-0.5-0.4-1.1-0.9-1.6-1.2c-0.4-0.3-0.7-0.7-1.3-0.7c-0.3,0-0.5,0.1-0.7,0.4c-0.2,0.2-0.2,0.5,0,0.8c0.2,0.3,0.5,0.5,0.8,0.7
	c0.7,0.5,1.3,1,2,1.5C41.4,36,42.1,35.7,42.1,35z"/>
<path class="st0" d="M23.6,46.1c-1.2-0.2-2.5-0.3-3.7-0.6c-3.1-0.8-5.9-2.2-8.3-4.3C8.3,38.5,6.1,35,4.9,30.8
	c-0.4-1.3-0.6-2.6-0.7-4c-0.2-2.3,0-4.5,0.5-6.7C5.4,17,6.9,14.1,9,11.6c0.5-0.6,1-1.1,1.5-1.6c0.1-0.1,0.2-0.3,0.3-0.2
	c0.1,0,0.1,0.2,0.2,0.3c0.7,3,1.6,5.9,2.9,8.7c0.8,1.8,1.7,3.5,2.7,5.2c1.3,2,2.6,3.9,4.1,5.8c1.7,2,3.4,4,5.3,5.8
	c1.3,1.3,2.7,2.5,4.1,3.7c1.6,1.3,3.2,2.6,4.8,3.9c0.3,0.2,0.3,0.4-0.1,0.6c-1,0.5-2,1-3.1,1.3c-1.2,0.4-2.5,0.7-3.7,0.9
	C27.6,46,27,46,26.5,46.1C25.5,46.1,24.6,46.1,23.6,46.1z M8.6,14c0,0,0,0.1,0,0.2c0.3,1.1,0.6,2.2,1,3.3c0.1,0.3,0.3,0.5,0.6,0.5
	c0.7,0.1,1.1-0.4,0.9-1.2c-0.3-1.1-0.6-2.1-1-3.2c-0.1-0.5-0.5-0.6-1-0.5C8.8,13.2,8.6,13.5,8.6,14z M13.8,23c0,0,0-0.1,0-0.2
	c-0.5-1-1-2-1.5-3c-0.3-0.5-0.7-0.7-1.1-0.4c-0.5,0.2-0.6,0.7-0.3,1.2c0.5,1,0.9,1.9,1.4,2.9c0.2,0.3,0.7,0.6,1,0.5
	C13.5,23.8,13.8,23.5,13.8,23z M14.6,25.3c-0.4,0-0.7,0.2-0.8,0.4c-0.2,0.3-0.1,0.6,0.1,0.8c0.6,0.9,1.2,1.7,1.7,2.6
	c0.1,0.1,0.2,0.2,0.4,0.3c0.3,0.3,0.6,0.1,0.9-0.1c0.3-0.2,0.4-0.6,0.2-0.9c-0.7-1-1.3-2.1-2.1-3C14.9,25.4,14.8,25.3,14.6,25.3z
	 M21.3,34c0-0.2-0.1-0.4-0.3-0.6c-0.7-0.8-1.3-1.5-2-2.3c-0.3-0.4-0.8-0.4-1.2-0.1c-0.3,0.3-0.4,0.7-0.1,1.2
	c0.2,0.3,0.5,0.6,0.7,0.9c0.5,0.6,1,1.2,1.6,1.7c0.3,0.2,0.6,0.2,0.8,0C21.2,34.6,21.3,34.4,21.3,34z M23.3,36.1
	c-0.4,0-0.6,0.3-0.8,0.5c-0.2,0.3-0.1,0.5,0.2,0.7c0.8,0.8,1.7,1.5,2.5,2.2c0.4,0.3,0.8,0.3,1.2-0.1c0.3-0.3,0.3-0.8-0.1-1.1
	c-0.7-0.6-1.4-1.3-2.2-1.9C23.9,36.3,23.6,36,23.3,36.1z M28.5,40.6c-0.3,0-0.6,0.1-0.7,0.4c-0.1,0.3-0.1,0.6,0.2,0.8
	c0.8,0.6,1.6,1.3,2.6,1.8c0.4,0.2,0.8,0.2,1-0.1c0.2-0.3,0.2-0.8-0.2-1.1c-0.6-0.5-1.2-1-1.8-1.4C29.2,41,29,40.6,28.5,40.6z"/>
<path class="st0" d="M15.5,6.4c0.3,0,0.3,0.2,0.3,0.4c0.3,1.2,0.6,2.4,1,3.6c0.6,2.1,1.4,4.2,2.4,6.1c0.9,1.8,1.9,3.6,2.9,5.3
	c0.8,1.3,1.7,2.5,2.6,3.6c1.4,1.9,3,3.6,4.7,5.3c1.6,1.7,3.3,3.3,5,4.8c1.7,1.5,3.4,2.8,5.1,4.2c0.2,0.2,0.2,0.3,0,0.5
	c-0.8,0.8-1.7,1.4-2.5,2.1c-0.3,0.2-0.6,0.1-0.8-0.1c-0.9-0.7-1.9-1.5-2.8-2.2c-1.8-1.5-3.6-3-5.3-4.6c-1.3-1.2-2.5-2.5-3.7-3.8
	c-1.2-1.3-2.3-2.6-3.3-4c-0.5-0.7-1-1.5-1.5-2.2c-0.5-0.8-1.1-1.6-1.6-2.5c-1.1-1.8-2.1-3.7-3-5.7c-0.6-1.4-1.2-2.9-1.7-4.3
	c-0.5-1.3-0.9-2.7-1.2-4.1c0-0.2,0-0.4,0.2-0.5c1-0.8,2-1.5,3.2-2C15.4,6.4,15.5,6.4,15.5,6.4z"/>
</svg>
